<?xml version="1.0" encoding="utf-8"?>
<!-- Generator: Adobe Illustrator 19.1.1, SVG Export Plug-In . SVG Version: 6.00 Build 0)  -->
<svg version="1.1" id="Layer_1" xmlns="http://www.w3.org/2000/svg" xmlns:xlink="http://www.w3.org/1999/xlink" x="0px" y="0px"
	 viewBox="-104 147 505 322" style="enable-background:new -104 147 505 322;" xml:space="preserve">
<style type="text/css">
	.st0{display:none;fill:#F16623;}
	.st1{display:none;fill:#FFFFFF;}
	.st2{display:none;fill:#F06725;}
	.st3{display:none;}
	.st4{display:inline;fill:none;stroke:#F06725;stroke-miterlimit:10;}
	.st5{display:inline;fill:#FFFFFF;}
	.st6{display:inline;fill:none;}
	.st7{display:none;fill:none;stroke:#F06725;stroke-miterlimit:10;}
	.st8{fill:#F16623;}
	.st9{fill:#EF4D23;}
	.st10{fill:#0D72B9;}
	.st11{fill:#27A5DD;}
	.st12{fill:#EAEAEA;}
	.st13{fill:none;}
	.st14{fill:#FFFFFF;}
	.st15{fill:#4F274A;}
	.st16{fill:#21163A;}
	.st17{fill:#351D40;}
	.st18{fill:#412244;}
	.st19{fill:#472446;}
	.st20{fill:#141135;}
	.st21{fill:#5F2D4F;}
	.st22{fill:#331D40;}
	.st23{fill:#2B1A3D;}
	.st24{fill:#7C5D77;}
	.st25{fill:#FEFEFE;}
	.st26{fill:#2F1B3E;}
	.st27{fill:#3E2144;}
	.st28{fill:#1CA48F;}
	.st29{fill:#71C6B8;}
	.st30{fill:#6CC7C1;}
	.st31{fill:#1CA590;}
</style>
<text transform="matrix(1 0 0 1 -89.7392 94.4815)" style="display:none;fill:#231F20;enable-background:new    ; font-family:'Lato-Regular'; font-size:22.6954px;">HTML</text>
<text transform="matrix(1 0 0 1 38.4802 546.9706)" style="display:none;fill:#231F20;enable-background:new    ; font-family:'Lato-Regular'; font-size:22.6954px;">CSS</text>
<text transform="matrix(1 0 0 1 153.4344 93.6844)" style="display:none;fill:#231F20;enable-background:new    ; font-family:'Lato-Regular'; font-size:22.6954px;">PHP</text>
<text transform="matrix(1 0 0 1 250.7764 546.4977)" style="display:none;fill:#231F20;enable-background:new    ; font-family:'Lato-Regular'; font-size:22.6954px;">MYSQL</text>
<text transform="matrix(1 0 0 1 340.0046 93.6844)" style="display:none;fill:#231F20;enable-background:new    ; font-family:'Lato-Regular'; font-size:22.6954px;">JAVASCRIPT</text>
<text transform="matrix(1 0 0 1 477.3356 546.9696)" style="display:none;fill:#231F20;enable-background:new    ; font-family:'Lato-Regular'; font-size:22.6954px;">JQUERY</text>
<text transform="matrix(1 0 0 1 681.0435 546.9696)" style="display:none;fill:#231F20;enable-background:new    ; font-family:'Lato-Regular'; font-size:22.6954px;">PHOTOSHOP</text>
<text transform="matrix(1 0 0 1 912.4889 546.9696)" style="display:none;fill:#231F20;enable-background:new    ; font-family:'Lato-Regular'; font-size:22.6954px;">BOOTSTRAP</text>
<text transform="matrix(1 0 0 1 605.8649 93.6844)" style="display:none;fill:#231F20;enable-background:new    ; font-family:'Lato-Regular'; font-size:22.6954px;">AJAX</text>
<text transform="matrix(1 0 0 1 794.2594 94.0095)" style="display:none;fill:#231F20;enable-background:new    ; font-family:'Lato-Regular'; font-size:22.6954px;">WORDPRESS</text>
<circle class="st0" cx="953.8" cy="84.4" r="12.5"/>
<rect x="952.3" y="76.2" class="st1" width="3.1" height="16.3"/>
<rect x="945.7" y="82.8" class="st1" width="16.3" height="3.1"/>
<circle class="st0" cx="678.7" cy="84.4" r="12.5"/>
<rect x="677.1" y="76.2" class="st1" width="3.1" height="16.3"/>
<rect x="670.5" y="82.8" class="st1" width="16.3" height="3.1"/>
<circle class="st0" cx="488.6" cy="84.4" r="12.5"/>
<rect x="487" y="76.2" class="st1" width="3.1" height="16.3"/>
<rect x="480.4" y="82.8" class="st1" width="16.3" height="3.1"/>
<circle class="st0" cx="217.7" cy="84.4" r="12.5"/>
<rect x="216.1" y="76.2" class="st1" width="3.1" height="16.3"/>
<rect x="209.5" y="82.8" class="st1" width="16.3" height="3.1"/>
<circle class="st0" cx="-9.3" cy="84.4" r="12.5"/>
<rect x="-10.9" y="76.2" class="st1" width="3.1" height="16.3"/>
<rect x="-17.4" y="82.8" class="st1" width="16.3" height="3.1"/>
<circle class="st0" cx="1065.1" cy="539.5" r="12.5"/>
<rect x="1063.6" y="531.3" class="st1" width="3.1" height="16.3"/>
<rect x="1057" y="537.9" class="st1" width="16.3" height="3.1"/>
<circle class="st0" cx="839.7" cy="539.5" r="12.5"/>
<rect x="838.1" y="531.3" class="st1" width="3.1" height="16.3"/>
<rect x="831.5" y="537.9" class="st1" width="16.3" height="3.1"/>
<circle class="st0" cx="582.9" cy="539.5" r="12.5"/>
<rect x="581.3" y="531.3" class="st1" width="3.1" height="16.3"/>
<rect x="574.8" y="537.9" class="st1" width="16.3" height="3.1"/>
<circle class="st0" cx="348.9" cy="539.5" r="12.5"/>
<rect x="347.3" y="531.3" class="st1" width="3.1" height="16.3"/>
<rect x="340.7" y="537.9" class="st1" width="16.3" height="3.1"/>
<circle class="st2" cx="97.8" cy="539.5" r="12.5"/>
<rect x="96.2" y="531.3" class="st1" width="3.1" height="16.3"/>
<rect x="89.7" y="537.9" class="st1" width="16.3" height="3.1"/>
<g class="st3">
	<path class="st4" d="M480.8,666.1H14c-4.9,0-9-4.1-9-9v-72.4c0-4.9,4.1-9,9-9h466.8c5,0,9,4.1,9,9v72.4
		C489.8,662.1,485.7,666.1,480.8,666.1z"/>
	<polygon class="st4" points="96.9,575.4 83.4,575.4 96.9,562 110.3,575.4 	"/>
	
		<rect x="87.3" y="567" transform="matrix(-0.7071 -0.7071 0.7071 -0.7071 -242.3414 1052.687)" class="st5" width="19.1" height="19.1"/>
	<rect x="20.3" y="590.2" class="st6" width="451.8" height="61.7"/>
	
		<text transform="matrix(1 0 0 1 20.2702 600.4685)" style="display:inline;fill:#231F20; font-family:'Lato-Thin'; font-size:14.1846px;">Lorem Ipsum is simply dummy text of the printing and typesetting indu</text>
	
		<text transform="matrix(1 0 0 1 454.8702 600.4685)" style="display:inline;fill:#231F20; font-family:'Lato-Thin'; font-size:14.1846px;">-</text>
	
		<text transform="matrix(1 0 0 1 20.2702 617.4685)" style="display:inline;fill:#231F20; font-family:'Lato-Thin'; font-size:14.1846px;">try. Lorem Ipsum has been the industry&apos;s standard dummy text ever since </text>
	
		<text transform="matrix(1 0 0 1 20.2702 634.4685)" style="display:inline;fill:#231F20; font-family:'Lato-Thin'; font-size:14.1846px;">the 1500s, when an unknown printer took a galley of type and scrambled </text>
	
		<text transform="matrix(1 0 0 1 20.2702 651.5685)" style="display:inline;fill:#231F20; font-family:'Lato-Thin'; font-size:14.1846px;">it to make a type specimen book. It has survived not only five centuries, </text>
</g>
<path class="st7" d="M1063-41H596.2c-5,0-9,4-9,9v72.4c0,5,4,9,9,9H1063c4.9,0,9-4,9-9V-32C1072-36.9,1067.9-41,1063-41z"/>
<polygon class="st7" points="679.1,49.7 665.6,49.7 679.1,63.1 692.5,49.7 "/>
<rect x="669.5" y="39" transform="matrix(-0.7071 0.7071 -0.7071 -0.7071 1193.512 -397.2422)" class="st1" width="19.1" height="19.1"/>
<g>
	<g>
		<circle class="st8" cx="90.3" cy="284.9" r="8.5"/>
	</g>
</g>
<path class="st9" d="M-83.9,203.5l4.7,60c0.1,0.9,0.7,1.7,1.5,1.9l24.7,7.8c0.4,0.1,0.9,0.1,1.3,0l24.7-7.8c0.9-0.3,1.5-1,1.5-1.9
	l4.7-60c0.1-1.3-0.9-2.4-2.2-2.4h-58.7C-82.9,201.1-84,202.2-83.9,203.5z M-32.7,222.1h-30.6l0.9,8.5h29l-1.9,24.3l-17,5.4l-17-5.4
	l-1-12.7h8.9v6.2l9.3,2.5l9.3-2.5l0.7-9.9h-28.5l-1.9-24.2h40.4L-32.7,222.1z"/>
<g>
	<polygon class="st10" points="-82.6,357.3 -21.9,357.3 -27.3,419.3 -52.3,426 -77.2,419.3 	"/>
	<polygon class="st11" points="-52.3,362.4 -27,362.4 -31.8,415.2 -52.3,421.1 	"/>
	<g>
		<polygon class="st12" points="-36.6,370 -71.3,370 -70.5,377.6 -41.6,377.6 -42.5,385.2 -69.8,385.2 -69.1,392.6 -42.9,392.6 
			-43.9,402.9 -52.4,405 -60.8,402.9 -61.2,396.8 -68.7,396.8 -67.6,409.1 -52.1,413.3 -36.6,409.1 -33,370 		"/>
	</g>
	<g>
		<polygon class="st13" points="-42.5,385.2 -41.6,377.6 -52.1,377.6 -52.1,385.2 		"/>
		<polygon class="st13" points="-43.9,402.9 -42.9,392.6 -52.1,392.6 -52.1,404.8 		"/>
		<polygon class="st14" points="-36.7,370 -52.3,370 -52.3,377.6 -41.6,377.6 -42.6,385.2 -52.3,385.2 -52.3,392.6 -43,392.6 
			-43.9,402.9 -52.3,404.8 -52.3,413.3 -52.2,413.3 -36.7,409.1 -33,370 		"/>
	</g>
</g>
<g>
	<path class="st15" d="M344.8,361.3c6,0,12,0,18,0c0.6,0.3,1,0.8,1.4,1.3c3.4,3.4,6.7,6.9,10.2,10.1c3.2,2.9,6.1,6.1,9.3,9
		c0.4,0.3,0.7,0.7,0.6,1.2c0,6.9,0,13.9,0,20.8c0,0.7-0.3,0.8-0.8,0.5c-0.4-0.2-0.7-0.5-1-0.8c-4.4-4.5-9.1-8.7-13.4-13.2
		c-0.6-0.6-1.4-1-2-1.6c0-1.2,0.5-2.4,0.6-3.6c0.3-3.5-1.1-7.3-4.6-9c-1.3-0.6-2.6-1.1-4.1-1.3c-0.7-0.1-1.5-0.1-2.2-0.6
		c-1.8-2.2-3.8-4.1-5.9-6c-2-1.8-3.8-3.7-5.7-5.6C344.9,362.2,344.5,361.8,344.8,361.3z"/>
	<path class="st16" d="M358,426.4c-5.6,0-11.2,0-16.8,0c-1.7-1.5-3.4-3.1-5-4.6c-3.2-3.1-6.4-6.3-9.6-9.5c-1.9-1.9-3.9-3.6-5.8-5.5
		c-0.4-0.5-0.9-0.9-1.3-1.4c0-7.8,0-15.5,0-23.3c0.7-0.4,1.1,0.2,1.5,0.6c4.4,4.1,8.6,8.3,12.8,12.6c0.8,0.8,2,1.4,2.4,2.6
		c0.1,4.7,0,9.3,0,14c0,1.7,0.3,2,2,2c2.5,0,5,0,7.5,0c1.3,0.7,2.3,1.9,3.4,2.9c2.8,2.6,5.4,5.3,8,8
		C357.7,425.2,358.3,425.6,358,426.4z"/>
	<path class="st17" d="M335.9,397.3c-0.5-0.3-1-0.7-1.4-1.1c-2.3-2.3-4.6-4.6-6.9-6.9s-4.7-4.5-7-6.8c-0.3-0.2-0.5-0.5-0.9-0.5
		c0-4.1,0-8.2,0-12.2c0.3-2.7,1.6-4.8,3.7-6.5c0.8-0.6,1.6-1.4,2.8-1.2c0.5,0.2,0.9,0.6,1.3,1c2.8,2.8,5.6,5.6,8.4,8.4
		c0.8,0.8,1.5,1.6,0.6,2.8c-0.3,0.4-0.1,0.9-0.1,1.4c0,6.7,0,13.3,0,20C336.3,396.3,336.5,396.9,335.9,397.3z"/>
	<path class="st18" d="M367.2,388.7c0.6,0,1.1,0.3,1.5,0.7c0.1,0.1,0.3,0.3,0.4,0.4c4.7,4.6,9.4,9.3,14.1,13.9
		c0.3,0.3,0.5,0.6,1,0.6c0.3,0.4,0.1,0.8,0.1,1.2c0,3.5,0,6.9,0,10.4c0,0.4-0.1,0.8,0.1,1.2c0,0.2,0,0.5,0,0.7
		c-0.3,1.3-0.5,2.6-1.2,3.8c-0.3,0.5-0.6,1-1.3,1.2c-0.3,0-0.5-0.1-0.6-0.3c-4.6-4.3-9-8.7-13.4-13.2c-0.1-0.1-0.1-0.1-0.1-0.2
		c-0.1-0.5,0.2-0.9,0.4-1.4c1.2-2.3,1.3-4.7,1-7.2c-0.5-3.3-2.2-5.9-5.3-7.2c-0.4-0.2-0.9-0.3-0.9-0.8s0.5-0.7,0.9-0.9
		c0.9-0.5,1.7-1.3,2.4-2.1C366.4,389.1,366.7,388.7,367.2,388.7z"/>
	<path class="st19" d="M335.9,397.3c0-7.4,0-14.8,0-22.1c0-0.6-0.3-1.3,0.5-1.8c0.4-0.2,0-0.6-0.2-0.8c-3.5-3.4-6.8-7-10.5-10.3
		c0-0.6,0.5-0.6,0.9-0.7c0.5-0.1,1,0,1.5-0.2c5.5,0,11,0,16.6,0c0.1,0.2,0.1,0.5,0.3,0.6c2.2,2.1,4.2,4.3,6.4,6.3
		c1.9,1.7,3.9,3.4,5.3,5.6c-0.5,0.5-1.2,0.5-1.8,0.4c-3.1-0.4-6.2,0-9.3,0c-2.2,0-4.5,0-6.7,0c-2.3,0-2.3,0-2.3,2.3
		c0,11.7,0,23.3,0,35c0,1.8,0,1.8,1.8,1.8c5.3,0,10.6,0,15.9,0c0.7,0,1.4-0.1,1.9,0.4c0,0.7-0.6,0.7-1,0.7c-2.7,0.1-5.4,0.1-8.1,0
		c-0.4,0-0.7-0.2-1-0.4c-3,0-6.1-0.1-9.1,0c-1,0-1.2-0.3-1.2-1.2C336,407.7,335.9,402.5,335.9,397.3z"/>
	<path class="st20" d="M319.6,405.3c0.5,0,0.7,0.4,1,0.6c4.7,4.3,9.1,8.9,13.6,13.4c2,2,4.1,4,6.2,6c0.3,0.3,0.8,0.6,0.8,1.1
		c-4.3,0-8.6,0-13,0c-3.1-0.2-5.4-1.9-7.2-4.3c-0.9-1.2-1.2-2.6-1.5-4.1C319.6,413.7,319.6,409.5,319.6,405.3z"/>
	<path class="st21" d="M384.2,382.5c-0.4-0.2-0.8-0.5-1.1-0.8c-6.5-6.4-13-12.8-19.5-19.2c-0.3-0.3-0.6-0.7-0.8-1.2
		c4.3,0,8.6,0,13,0c3.9,0.4,6.4,2.6,8,6c0.5,0.9,0.3,1.9,0.6,2.9c0,0.1,0,0.2,0,0.2c-0.3,1-0.1,2-0.1,3c0,2.6,0,5.3,0,7.9
		C384.3,381.7,384.5,382.1,384.2,382.5z"/>
	<path class="st22" d="M367.9,409.1c0.5,0,0.8,0.5,1.2,0.8c2.8,2.8,5.6,5.7,8.5,8.5c1.5,1.4,3,2.7,4.4,4.2c0,0.5-0.3,0.9-0.7,1.2
		c-1.6,1.7-3.6,2.5-5.9,2.6c-1.5,0-3,0-4.6,0c-2.4-1.9-4.5-4.1-6.6-6.2s-4.2-4.3-6.4-6.4c0.3-0.6,0.8-0.5,1.3-0.6
		c2.7-0.5,5.3-1.2,7.4-3.1C366.9,409.7,367.1,409.1,367.9,409.1z"/>
	<path class="st23" d="M357.8,413.9c0.6,0,1,0.3,1.4,0.7c3.4,3.4,6.6,6.9,10.2,10.1c0.6,0.5,1.2,0.9,1.4,1.7c-4.2,0-8.5,0-12.7,0
		c-0.2-0.5-0.5-0.9-0.9-1.3c-2.7-2.7-5.5-5.5-8.2-8.2c-0.9-0.9-2.1-1.5-2.7-2.7c2.8,0,5.6,0,8.5-0.1c0.5,0,1.1,0.1,1.6-0.2
		C356.8,413.4,357.3,413.5,357.8,413.9z"/>
	<path class="st24" d="M384.2,382.5c0-3.6,0-7.2,0-10.8c0-0.4-0.2-0.9,0.2-1.2c0,15.5,0,31,0,46.6c-0.4-0.4-0.2-0.8-0.2-1.2
		c0-3.8,0-7.6,0-11.5C384.2,397,384.2,389.7,384.2,382.5z"/>
	<path class="st25" d="M357.8,413.9c-0.5,0-0.9,0-1.4,0.1c-6.3,0-12.6,0-18.9,0.1c-1,0-1.3-0.2-1.3-1.2c0-12.6,0-25.3,0-37.9
		c0-0.9,0.1-1.2,1.1-1.2c6.5,0.1,13-0.1,19.5,0.2c1.6,0.4,3.3,0.6,4.9,1.1c4.7,1.6,6.6,5.2,6.4,10.1c-0.1,1.2-0.4,2.4-0.9,3.6
		c-1,1.6-2.4,2.9-4.4,3.7c3.5,1.3,5.8,3.5,6.6,7c0.7,3.4,0.4,6.7-1.5,9.6c-2.3,2.9-5.5,4-8.9,4.6
		C358.5,413.7,358.2,413.8,357.8,413.9z"/>
	<path class="st26" d="M346.7,401.6c0-1.5,0-3,0-4.4c0-0.4-0.1-0.8,0.6-0.8c2.5,0.1,5.1-0.2,7.6,0.2c2.7,0.5,4.2,2.2,4.2,4.9
		c0,2.7-1.4,4.6-3.9,5.1c-2.6,0.5-5.3,0.2-8,0.3c-0.7,0-0.5-0.5-0.5-0.8C346.7,404.6,346.7,403.1,346.7,401.6z"/>
	<path class="st27" d="M346.7,385.1c0-1.2,0-2.3,0-3.5c0-0.4-0.1-0.8,0.6-0.8c2.2,0.1,4.5-0.2,6.7,0.2c2.3,0.4,3.6,1.9,3.5,4.2
		c-0.1,2.3-1.5,3.7-3.8,4c-2.1,0.2-4.2,0-6.2,0.1c-0.7,0-0.8-0.3-0.8-0.9C346.7,387.3,346.7,386.2,346.7,385.1z"/>
</g>
<g>
	<g>
		<circle class="st8" cx="2.5" cy="230.6" r="4.9"/>
	</g>
	<g>
		<circle class="st8" cx="2.5" cy="396.6" r="4.9"/>
	</g>
	<g>
		<circle class="st8" cx="295.5" cy="396.6" r="4.9"/>
	</g>
	<g>
		<circle class="st8" cx="295.5" cy="230.6" r="4.9"/>
	</g>
	<path class="st8" d="M108.1,264.8l-34.9-34.9l-0.5,0.5v-0.8H2.5v2.5h69.2l33.3,33.3c0.3,0.2,0.5,0.3,0.7,0.5
		c0.3,0.2,0.5,0.4,0.8,0.6c0.2-0.2,0.4-0.5,0.6-0.7l-0.1-0.1L108.1,264.8z"/>
	<path class="st8" d="M108.1,362.3l-34.9,34.9l-0.5-0.5v0.8H2.5V395h69.2l33.3-33.3c0.3-0.2,0.5-0.3,0.7-0.5
		c0.3-0.2,0.5-0.4,0.8-0.6c0.2,0.2,0.4,0.5,0.6,0.7l-0.1,0.1L108.1,362.3z"/>
	<path class="st8" d="M193.5,264.8l34.9-34.9l0.5,0.5v-0.8h70.2v2.5h-69.2l-33.3,33.3c-0.3,0.2-0.5,0.3-0.7,0.5
		c-0.3,0.2-0.5,0.4-0.8,0.6c-0.2-0.2-0.4-0.5-0.6-0.7l0.1-0.1L193.5,264.8z"/>
	<path class="st8" d="M193.5,362.3l34.9,34.9l0.5-0.5v0.8h70.2V395h-69.2l-33.3-33.3c-0.3-0.2-0.5-0.3-0.7-0.5
		c-0.3-0.2-0.5-0.4-0.8-0.6c-0.2,0.2-0.4,0.5-0.6,0.7l0.1,0.1L193.5,362.3z"/>
</g>
<g>
	<path class="st28" d="M382.8,201.9c0,1,0,2.2,0,2.9c-0.1,2.1-0.5,5.7-0.5,8.6c-0.2,7.8-1.1,15.6-1.7,23.4c-0.6,7-1.3,13.9-1.9,20.9
		c-0.2,2.4-0.5,4.7-0.8,7c-0.1,1.3-0.8,2-2,2.3c-7.7,2-14.9,5.3-23,6c-0.2,0-0.4,0-0.6,0.1c-0.6,0-1.2,0-1.8,0
		c-7.9-1-15.3-3.9-23-5.9c-1.7-0.4-2.5-1.3-2.6-3.1c-0.9-9.4-1.6-18.9-2.5-28.3c-0.8-8.8-1.6-17.7-2-26.6c-0.1-2.1-0.3-4.1-0.4-6.1
		c0-0.4,0-0.7,0-1.1c0.5-0.3,1.1-0.2,1.6-0.2c19.8,0,39.7,0,59.6,0C381.7,201.7,382.3,201.5,382.8,201.9z"/>
	<path class="st29" d="M382.8,201.9c-20.9,0-41.8,0-62.7,0c-0.1-0.6,0.3-0.4,0.5-0.4c20.6,0,41.1,0,61.7,0
		C382.5,201.5,382.9,201.3,382.8,201.9z"/>
	<path class="st25" d="M343.3,238.6c-1.4-0.3-1.7,0.2-1.5,1.6c0.8,5.6,1.5,11.2,2.3,17.1c-2.8-0.8-5.4-1.6-8.1-2.2
		c-0.9-0.3-0.8-1-0.8-1.6c-0.6-6.1-1.1-12.1-1.7-18.2c-0.5-6.2-1.1-12.5-1.7-18.8c-0.1-1.4,0.2-1.6,1.5-1.6c6,0,11.9,0,17.9,0
		c0.7-0.8,1.6-0.8,2.5-0.8c5,0,10-0.1,15,0c2.5,0,2.8,0.5,2.7,2.9c-0.4,6.7-0.9,13.3-1.5,20c-0.2,2.1-0.5,2.4-2.6,2.8
		c-2.1,0.3-2.4,0.8-2.1,2.9c0.6,3.5,1.5,7,2.1,10.5c0.4,2.2,0.2,2.6-2,3.3c-2,0.7-4.1,1.2-6.1,1.7c-2,0.4-2.8-0.1-3-2.2
		c-0.3-2.8-0.5-5.5-0.8-8.3c-0.1-1.4-0.4-2.8-0.4-4.1c-0.1-3.4-1.5-4.7-4.9-4.8C347.8,238.6,345.5,238.8,343.3,238.6z"/>
	<path class="st30" d="M343.3,238.6c3.7-0.3,7.4,0,11,0.1c0.9,0,1.3,0.3,1.3,1.3c0.4,5.1,1,10.2,1.5,15.3c0.2,2.5,0.2,2.5,2.6,1.9
		c1.8-0.5,3.7-1.1,5.6-1.5c1.2-0.3,1.7-0.7,1.3-2.1c-1-4.4-1.8-8.8-2.8-13.3c-0.3-1.2,0.1-1.5,1.2-1.5c3.8-0.1,3.8-0.2,4.2-3.8
		c0.5-6.2,0.9-12.4,1.5-18.6c0.1-1.3-0.5-1.3-1.5-1.3c-6,0-12,0-18,0c0-2.2,0.1-4.5,0-6.7c0-1.2,0.4-1.6,1.6-1.6
		c7.5,0,15.1,0,22.7,0c1.2,0,1.6,0.5,1.5,1.6c-0.3,3.7-0.5,7.3-0.8,11c-0.3,3.6-0.7,7.1-0.9,10.6c-0.5,5.2-0.9,10.4-1.3,15.7
		c-0.4,4.9-0.9,9.7-1.2,14.6c-0.1,1.3-0.5,1.9-1.8,2.3c-5.9,1.6-11.9,3.2-17.8,5c-1.5,0.4-1.9,0.2-1.9-1.4c0.1-8.3,0-16.6,0.1-24.8
		c0-1.7-0.5-2.3-2.2-2.3C347.1,238.9,345.1,239,343.3,238.6z"/>
	<path class="st30" d="M351.2,222.6c3.5,0,7,0,10.5-0.1c1.2,0,1.5,0.4,1.3,1.5c-0.3,1.7-0.4,3.4-0.5,5c-0.1,0.9-0.3,1.3-1.3,1.3
		c-6.5,0-13.1,0-19.5,0.1c-0.2,0-0.4-0.2-0.6-0.3c0.4-0.9,1.2-0.8,2-0.9c1.5-0.1,2.9,0,4.3,0c2.4,0,2.9-0.5,3-3
		C350.4,225,350,223.6,351.2,222.6z"/>
	<path class="st31" d="M351.2,222.6c0,1.8-0.1,3.6,0,5.4c0.1,1.6-0.4,2.2-2.1,2.2c-2.7-0.1-5.4,0-8.1,0c-0.5-2.2-0.2-4.5-0.5-6.8
		c-0.1-0.9,0.5-0.9,1.1-0.9C344.8,222.5,348,222.6,351.2,222.6z"/>
</g>
<circle class="st8" cx="150.2" cy="315.2" r="78"/>
<g>
	<g>
		<path class="st14" d="M120.9,290.7v46.7h57.5v-46.7H120.9z M174.8,333.9h-50.3V298h50.3V333.9z"/>
		<rect x="153.2" y="305.1" class="st14" width="18" height="3.6"/>
		<rect x="153.2" y="312.3" class="st14" width="18" height="3.6"/>
		<rect x="153.2" y="319.5" class="st14" width="10.8" height="3.6"/>
		<rect x="128.1" y="305.1" class="st14" width="18" height="18"/>
	</g>
</g>
</svg>
