<?xml version="1.0" encoding="utf-8"?>
<!-- Generator: Adobe Illustrator 19.1.1, SVG Export Plug-In . SVG Version: 6.00 Build 0)  -->
<svg version="1.1" id="Layer_1" xmlns="http://www.w3.org/2000/svg" xmlns:xlink="http://www.w3.org/1999/xlink" x="0px" y="0px"
	 viewBox="41 -75 512 512" style="enable-background:new 41 -75 512 512;" xml:space="preserve">
<style type="text/css">
	.st0{fill:#FFFFFF;}
	.st1{fill:#F7F7F7;}
</style>
<g>
	<path class="st0" d="M422.5,136c-39.9,0-72.3-32.4-72.3-72.3c0-39.9,32.4-72.3,72.3-72.3s72.3,32.4,72.3,72.3
		c0,8.2-6.6,14.8-14.8,14.8s-14.8-6.6-14.8-14.8c0-23.5-19.1-42.7-42.7-42.7s-42.7,19.1-42.7,42.7c0,23.5,19.1,42.7,42.7,42.7
		c8.2,0,14.8,6.6,14.8,14.8S430.7,136,422.5,136z"/>
	<path class="st0" d="M445.5,403.1h-31.1c-24.4,0-44.8-18.3-47.5-42.5l-15.6-140.7c-0.5-4.2,0.9-8.4,3.7-11.5
		c2.8-3.1,6.8-4.9,11-4.9h113c8.2,0,14.8,6.6,14.8,14.8c0,8.2-6.6,14.8-14.8,14.8h-96.5l13.8,124.2c1,9.2,8.8,16.2,18.1,16.2h31.1
		c8.2,0,14.8,6.6,14.8,14.8S453.7,403.1,445.5,403.1z"/>
</g>
<path class="st1" d="M490.5,281.7h-136V151c0-16.8,13.6-30.4,30.4-30.4h75.2c16.8,0,30.4,13.6,30.4,30.4V281.7L490.5,281.7z"/>
<g>
	<path class="st0" d="M490.5,296.5h-136c-8.2,0-14.8-6.6-14.8-14.8V151c0-24.9,20.3-45.2,45.2-45.2h75.2c24.9,0,45.2,20.3,45.2,45.2
		v130.7C505.3,289.9,498.7,296.5,490.5,296.5z M369.3,266.9h106.4V151c0-8.6-7-15.6-15.6-15.6h-75.2c-8.6,0-15.6,7-15.6,15.6V266.9
		L369.3,266.9z"/>
	<path class="st0" d="M196.5,403.1h-31.1c-24.4,0-44.8-18.3-47.5-42.5l-15.6-140.7c-0.5-4.2,0.9-8.4,3.7-11.5
		c2.8-3.1,6.8-4.9,11-4.9h113c8.2,0,14.8,6.6,14.8,14.8c0,8.2-6.6,14.8-14.8,14.8h-96.5l13.8,124.2c1,9.2,8.8,16.2,18.1,16.2h31.1
		c8.2,0,14.8,6.6,14.8,14.8S204.7,403.1,196.5,403.1z"/>
</g>
<path class="st1" d="M241.5,281.7h-136V151c0-16.8,13.6-30.4,30.4-30.4h75.2c16.8,0,30.4,13.6,30.4,30.4L241.5,281.7L241.5,281.7z"
	/>
<g>
	<path class="st0" d="M241.5,296.5h-136c-8.2,0-14.8-6.6-14.8-14.8V151c0-24.9,20.3-45.2,45.2-45.2h75.2c24.9,0,45.2,20.3,45.2,45.2
		v130.7C256.3,289.9,249.7,296.5,241.5,296.5z M120.3,266.9h106.4V151c0-8.6-7-15.6-15.6-15.6h-75.2c-8.6,0-15.6,7-15.6,15.6
		L120.3,266.9L120.3,266.9z"/>
	<path class="st0" d="M173.5,136c-39.9,0-72.3-32.4-72.3-72.3c0-39.9,32.4-72.3,72.3-72.3s72.3,32.4,72.3,72.3S213.4,136,173.5,136z
		 M173.5,21.1c-23.5,0-42.7,19.1-42.7,42.7c0,23.5,19.1,42.7,42.7,42.7s42.7-19.1,42.7-42.7C216.2,40.2,197,21.1,173.5,21.1z"/>
	<path class="st0" d="M328.4,437h-46c-27.1,0-49.8-20.3-52.8-47.3l-21.2-191c-0.5-4.2,0.9-8.4,3.7-11.5c2.8-3.1,6.8-4.9,11-4.9
		h149.6c8.2,0,14.8,6.6,14.8,14.8s-6.6,14.8-14.8,14.8H239.6l19.3,174.6c1.3,11.9,11.4,20.9,23.4,20.9h46c8.2,0,14.8,6.6,14.8,14.8
		C343.2,430.4,336.6,437,328.4,437z"/>
</g>
<path class="st1" d="M388,281.6H208v-152c0-22.2,18-40.2,40.2-40.2h99.6c22.2,0,40.2,18,40.2,40.2L388,281.6L388,281.6L388,281.6z"
	/>
<g>
	<path class="st0" d="M388,296.4H208c-8.2,0-14.8-6.6-14.8-14.8v-152c0-30.4,24.7-55,55-55h99.6c30.4,0,55,24.7,55,55v152
		C402.8,289.7,396.2,296.4,388,296.4z M222.8,266.8h150.5V129.6c0-14-11.4-25.4-25.4-25.4h-99.6c-14,0-25.4,11.4-25.4,25.4
		L222.8,266.8L222.8,266.8z"/>
	<path class="st0" d="M298,103.2c-49.1,0-89.1-40-89.1-89.1S248.9-75,298-75s89.1,40,89.1,89.1S347.1,103.2,298,103.2z M298-45.4
		c-32.8,0-59.5,26.7-59.5,59.5s26.7,59.5,59.5,59.5s59.5-26.7,59.5-59.5S330.8-45.4,298-45.4z"/>
</g>
</svg>
